{
  "login-page.button": "Iniciar sesion",
  "login-page.user-input": "Usuario",
  "login-page.password-input": "Contraseña",
  "dashboard-page.header": "Bienvenido ",
  "dashboard-page.logout-modal.header": "Cerrar sesión",
  "dashboard-page.logout-modal.button": "Continuar",
  "dashboard-page.logout-modal.slot": "¿Quieres cerrar sesión?",
  "movement-detail.concept": "Concepto",
  "movement-detail.date": "Fecha",
  "movement-detail.description": "Descripción",
  "movement-detail.category": "Categoría",
  "movement-detail.amount": "Importe",
  "movement-detail.currentBalance": "Saldo Actual",
  "movement-detail.badges": "Etiquetas",
  "create-account": "Crear Cuenta",
  "create-movement": "Transferencia",
  "import":"Importe",
  "origin-account":"Cuenta de Origen",
  "destini-account":"Cuenta de destino",
  "make-movement.button":"Hacer movimiento"



}
